{
    "HTTPS_PORT" : 8081,
    "hosts" : "0.0.0.0",
    "uri": "https://api.trustedservices.intel.com/sgx/certification/v3/",
    "ApiKey" : "8cf7ffa3a89a495eaa309a275856a062",
    "proxy" : "",
    "RefreshSchedule": "0 0 1 * * *",
    "UserTokenHash" : "2a09eed171bac91a90bc74d8513a6ff221281fca793d11d6f39a9b4b197763f4895bd9bf4b2134eb5dbe1111e169c10622956632e47101a87170a2ef05ad9e64",
    "AdminTokenHash" : "2a09eed171bac91a90bc74d8513a6ff221281fca793d11d6f39a9b4b197763f4895bd9bf4b2134eb5dbe1111e169c10622956632e47101a87170a2ef05ad9e64",
    "CachingFillMode" : "LAZY",
    "LogLevel" : "info",
    "DB_CONFIG" : "sqlite",
    "sqlite" : {
        "database" : "database",
        "username" : "username",
        "password" : "password",
        "options" : {
            "host": "localhost",
            "dialect": "sqlite",
            "pool": {
                "max": 5,
                "min": 0,
                "acquire": 30000,
                "idle": 10000
            },
            "define": {
                "freezeTableName": true
            },
            "logging" : false,
            "storage": "pckcache.db"
        }
    },
    "mysql" : {
        "database" : "pckcache",
        "username" : "root",
        "password" : "mypass",
        "options" : {
            "host": "localhost",
            "dialect": "mysql",
            "pool": {
                "max": 5,
                "min": 0,
                "acquire": 30000,
                "idle": 10000
            },
            "define": {
                "freezeTableName": true
            },
            "logging" : false
        }
    }
}
